<?xml version="1.0" encoding="UTF-8" standalone="no"?>
<!-- Created with Inkscape (http://www.inkscape.org/) -->

<svg
   xmlns:dc="http://purl.org/dc/elements/1.1/"
   xmlns:cc="http://creativecommons.org/ns#"
   xmlns:rdf="http://www.w3.org/1999/02/22-rdf-syntax-ns#"
   xmlns:svg="http://www.w3.org/2000/svg"
   xmlns="http://www.w3.org/2000/svg"
   version="1.1"
   width="90"
   height="90"
   id="svg2"
   xml:space="preserve"><metadata
     id="metadata8"><rdf:RDF><cc:Work
         rdf:about=""><dc:format>image/svg+xml</dc:format><dc:type
           rdf:resource="http://purl.org/dc/dcmitype/StillImage" /><dc:title></dc:title></cc:Work></rdf:RDF></metadata><defs
     id="defs6"><clipPath
       id="clipPath22"><path
         d="M 0,72 72,72 72,0 0,0 0,72 z"
         id="path24" /></clipPath><clipPath
       id="clipPath42"><path
         d="M 0,72 72,72 72,0 0,0 0,72 z"
         id="path44" /></clipPath><clipPath
       id="clipPath78"><path
         d="M 0,72 72,72 72,0 0,0 0,72 z"
         id="path80" /></clipPath><clipPath
       id="clipPath98"><path
         d="M 0,72 72,72 72,0 0,0 0,72 z"
         id="path100" /></clipPath><clipPath
       id="clipPath122"><path
         d="M 0,72 72,72 72,0 0,0 0,72 z"
         id="path124" /></clipPath></defs><g
     transform="matrix(1.25,0,0,-1.25,0,90)"
     id="g10"><path
       d="M 0,0 72,0 72,72 0,72 0,0 z"
       id="path12"
       style="fill:#e9dbb3;fill-opacity:1;fill-rule:nonzero;stroke:none" /><g
       transform="translate(11.8563,67.503)"
       id="g14"><path
         d="m 0,0 -1.629,-4.73 -4.73,1.629"
         id="path16"
         style="fill:none;stroke:#ddc98c;stroke-width:1.42900002;stroke-linecap:butt;stroke-linejoin:miter;stroke-miterlimit:10;stroke-opacity:1;stroke-dasharray:none" /></g><g
       id="g18"><g
         clip-path="url(#clipPath22)"
         id="g20"><g
           transform="translate(27.7278,70.5265)"
           id="g26"><path
             d="m 0,0 0,-5.003 -5.003,0"
             id="path28"
             style="fill:none;stroke:#ddc98c;stroke-width:1.42900002;stroke-linecap:butt;stroke-linejoin:miter;stroke-miterlimit:10;stroke-opacity:1;stroke-dasharray:none" /></g></g></g><g
       transform="translate(35.2257,67.5243)"
       id="g30"><path
         d="m 0,0 5.003,0 0,-5.003"
         id="path32"
         style="fill:none;stroke:#ddc98c;stroke-width:1.42900002;stroke-linecap:butt;stroke-linejoin:miter;stroke-miterlimit:10;stroke-opacity:1;stroke-dasharray:none" /></g><g
       transform="translate(9.1304,32.0918)"
       id="g34"><path
         d="M 0,0 1.347,-4.818 -3.471,-6.165"
         id="path36"
         style="fill:none;stroke:#ddc98c;stroke-width:1.42900002;stroke-linecap:butt;stroke-linejoin:miter;stroke-miterlimit:10;stroke-opacity:1;stroke-dasharray:none" /></g><g
       id="g38"><g
         clip-path="url(#clipPath42)"
         id="g40"><g
           transform="translate(69.4784,63.5243)"
           id="g46"><path
             d="m 0,0 -5.003,0 0,-5.003"
             id="path48"
             style="fill:none;stroke:#ddc98c;stroke-width:1.42900002;stroke-linecap:butt;stroke-linejoin:miter;stroke-miterlimit:10;stroke-opacity:1;stroke-dasharray:none" /></g><g
           transform="translate(6.3943,41.3584)"
           id="g50"><path
             d="m 0,0 -5.003,0 0,-5.003"
             id="path52"
             style="fill:none;stroke:#ddc98c;stroke-width:1.42900002;stroke-linecap:butt;stroke-linejoin:miter;stroke-miterlimit:10;stroke-opacity:1;stroke-dasharray:none" /></g><g
           transform="translate(2.7257,54.2743)"
           id="g54"><path
             d="m 0,0 5.003,0 0,-5.003"
             id="path56"
             style="fill:none;stroke:#ddc98c;stroke-width:1.42900002;stroke-linecap:butt;stroke-linejoin:miter;stroke-miterlimit:10;stroke-opacity:1;stroke-dasharray:none" /></g></g></g><g
       transform="translate(45.7556,62.591)"
       id="g58"><path
         d="M 0,0 -1.347,-4.818 3.471,-6.165"
         id="path60"
         style="fill:none;stroke:#ddc98c;stroke-width:1.42900002;stroke-linecap:butt;stroke-linejoin:miter;stroke-miterlimit:10;stroke-opacity:1;stroke-dasharray:none" /></g><g
       transform="translate(34.7251,48.5202)"
       id="g62"><path
         d="m 0,0 0,5.003 5.003,0"
         id="path64"
         style="fill:none;stroke:#ddc98c;stroke-width:1.42900002;stroke-linecap:butt;stroke-linejoin:miter;stroke-miterlimit:10;stroke-opacity:1;stroke-dasharray:none" /></g><g
       transform="translate(29.7271,21.0257)"
       id="g66"><path
         d="m 0,0 0,-5.003 5.003,0"
         id="path68"
         style="fill:none;stroke:#ddc98c;stroke-width:1.42900002;stroke-linecap:butt;stroke-linejoin:miter;stroke-miterlimit:10;stroke-opacity:1;stroke-dasharray:none" /></g><g
       transform="translate(50.7271,9.5257)"
       id="g70"><path
         d="m 0,0 0,-5.003 -5.003,0"
         id="path72"
         style="fill:none;stroke:#ddc98c;stroke-width:1.42900002;stroke-linecap:butt;stroke-linejoin:miter;stroke-miterlimit:10;stroke-opacity:1;stroke-dasharray:none" /></g><g
       id="g74"><g
         clip-path="url(#clipPath78)"
         id="g76"><g
           transform="translate(66.4757,6.7743)"
           id="g82"><path
             d="m 0,0 0,-5.003 5.003,0"
             id="path84"
             style="fill:none;stroke:#ddc98c;stroke-width:1.42900002;stroke-linecap:butt;stroke-linejoin:miter;stroke-miterlimit:10;stroke-opacity:1;stroke-dasharray:none" /></g></g></g><g
       transform="translate(61.0145,15.0604)"
       id="g86"><path
         d="M 0,0 -3.537,-3.537 -7.075,0"
         id="path88"
         style="fill:none;stroke:#ddc98c;stroke-width:1.42900002;stroke-linecap:butt;stroke-linejoin:miter;stroke-miterlimit:10;stroke-opacity:1;stroke-dasharray:none" /></g><g
       transform="translate(54.0145,45.7917)"
       id="g90"><path
         d="M 0,0 -3.537,-3.537 -7.075,0"
         id="path92"
         style="fill:none;stroke:#ddc98c;stroke-width:1.42900002;stroke-linecap:butt;stroke-linejoin:miter;stroke-miterlimit:10;stroke-opacity:1;stroke-dasharray:none" /></g><g
       id="g94"><g
         clip-path="url(#clipPath98)"
         id="g96"><g
           transform="translate(68.6304,50.341)"
           id="g102"><path
             d="M 0,0 1.347,-4.818 -3.471,-6.165"
             id="path104"
             style="fill:none;stroke:#ddc98c;stroke-width:1.42900002;stroke-linecap:butt;stroke-linejoin:miter;stroke-miterlimit:10;stroke-opacity:1;stroke-dasharray:none" /></g><g
           transform="translate(59.573,68.5015)"
           id="g106"><path
             d="M 0,0 -4.947,0.745 -5.692,-4.202"
             id="path108"
             style="fill:none;stroke:#ddc98c;stroke-width:1.42900002;stroke-linecap:butt;stroke-linejoin:miter;stroke-miterlimit:10;stroke-opacity:1;stroke-dasharray:none" /></g></g></g><g
       transform="translate(38.9784,40.7743)"
       id="g110"><path
         d="m 0,0 0,-5.003 -5.003,0"
         id="path112"
         style="fill:none;stroke:#ddc98c;stroke-width:1.42900002;stroke-linecap:butt;stroke-linejoin:miter;stroke-miterlimit:10;stroke-opacity:1;stroke-dasharray:none" /></g><g
       transform="translate(23.0145,33.3104)"
       id="g114"><path
         d="M 0,0 -3.537,-3.537 -7.075,0"
         id="path116"
         style="fill:none;stroke:#ddc98c;stroke-width:1.42900002;stroke-linecap:butt;stroke-linejoin:miter;stroke-miterlimit:10;stroke-opacity:1;stroke-dasharray:none" /></g><g
       id="g118"><g
         clip-path="url(#clipPath122)"
         id="g120"><g
           transform="translate(8.3222,14.5007)"
           id="g126"><path
             d="M 0,0 -4.947,0.745 -5.692,-4.202"
             id="path128"
             style="fill:none;stroke:#ddc98c;stroke-width:1.42900002;stroke-linecap:butt;stroke-linejoin:miter;stroke-miterlimit:10;stroke-opacity:1;stroke-dasharray:none" /></g><g
           transform="translate(17.9784,6.0243)"
           id="g130"><path
             d="m 0,0 -5.003,0 0,-5.003"
             id="path132"
             style="fill:none;stroke:#ddc98c;stroke-width:1.42900002;stroke-linecap:butt;stroke-linejoin:miter;stroke-miterlimit:10;stroke-opacity:1;stroke-dasharray:none" /></g></g></g><g
       transform="translate(49.7271,21.0229)"
       id="g134"><path
         d="M 0,0 -4.947,0.745 -5.692,-4.202"
         id="path136"
         style="fill:none;stroke:#ddc98c;stroke-width:1.42900002;stroke-linecap:butt;stroke-linejoin:miter;stroke-miterlimit:10;stroke-opacity:1;stroke-dasharray:none" /></g><g
       transform="translate(55.2257,32.5243)"
       id="g138"><path
         d="m 0,0 0,-5.003 5.003,0"
         id="path140"
         style="fill:none;stroke:#ddc98c;stroke-width:1.42900002;stroke-linecap:butt;stroke-linejoin:miter;stroke-miterlimit:10;stroke-opacity:1;stroke-dasharray:none" /></g><g
       transform="translate(44.8146,36.8464)"
       id="g142"><path
         d="M 0,0 4.825,-1.322 3.503,-6.147"
         id="path144"
         style="fill:none;stroke:#ddc98c;stroke-width:1.42900002;stroke-linecap:butt;stroke-linejoin:miter;stroke-miterlimit:10;stroke-opacity:1;stroke-dasharray:none" /></g><g
       transform="translate(68.146,37.6489)"
       id="g146"><path
         d="M 0,0 -4.917,0.92 -5.838,-3.997"
         id="path148"
         style="fill:none;stroke:#ddc98c;stroke-width:1.42900002;stroke-linecap:butt;stroke-linejoin:miter;stroke-miterlimit:10;stroke-opacity:1;stroke-dasharray:none" /></g><g
       transform="translate(14.4771,49.7749)"
       id="g150"><path
         d="m 0,0 0,-5.003 5.003,0"
         id="path152"
         style="fill:none;stroke:#ddc98c;stroke-width:1.42900002;stroke-linecap:butt;stroke-linejoin:miter;stroke-miterlimit:10;stroke-opacity:1;stroke-dasharray:none" /></g><g
       transform="translate(26.4583,39.4855)"
       id="g154"><path
         d="M 0,0 3.537,3.537 0,7.075"
         id="path156"
         style="fill:none;stroke:#ddc98c;stroke-width:1.42900002;stroke-linecap:butt;stroke-linejoin:miter;stroke-miterlimit:10;stroke-opacity:1;stroke-dasharray:none" /></g><g
       transform="translate(31.4396,3.7355)"
       id="g158"><path
         d="M 0,0 3.537,3.537 0,7.075"
         id="path160"
         style="fill:none;stroke:#ddc98c;stroke-width:1.42900002;stroke-linecap:butt;stroke-linejoin:miter;stroke-miterlimit:10;stroke-opacity:1;stroke-dasharray:none" /></g><g
       transform="translate(65.2083,19.9855)"
       id="g162"><path
         d="M 0,0 3.537,3.537 0,7.075"
         id="path164"
         style="fill:none;stroke:#ddc98c;stroke-width:1.42900002;stroke-linecap:butt;stroke-linejoin:miter;stroke-miterlimit:10;stroke-opacity:1;stroke-dasharray:none" /></g><g
       transform="translate(56.2083,49.9855)"
       id="g166"><path
         d="M 0,0 3.537,3.537 0,7.075"
         id="path168"
         style="fill:none;stroke:#ddc98c;stroke-width:1.42900002;stroke-linecap:butt;stroke-linejoin:miter;stroke-miterlimit:10;stroke-opacity:1;stroke-dasharray:none" /></g><g
       transform="translate(36.7645,25.0042)"
       id="g170"><path
         d="M 0,0 -3.537,3.537 -7.075,0"
         id="path172"
         style="fill:none;stroke:#ddc98c;stroke-width:1.42900002;stroke-linecap:butt;stroke-linejoin:miter;stroke-miterlimit:10;stroke-opacity:1;stroke-dasharray:none" /></g><g
       transform="translate(27.5145,55.5042)"
       id="g174"><path
         d="M 0,0 -3.537,3.537 -7.075,0"
         id="path176"
         style="fill:none;stroke:#ddc98c;stroke-width:1.42900002;stroke-linecap:butt;stroke-linejoin:miter;stroke-miterlimit:10;stroke-opacity:1;stroke-dasharray:none" /></g><g
       transform="translate(20.4784,14.0216)"
       id="g178"><path
         d="m 0,0 0,5.003 -5.003,0"
         id="path180"
         style="fill:none;stroke:#ddc98c;stroke-width:1.42900002;stroke-linecap:butt;stroke-linejoin:miter;stroke-miterlimit:10;stroke-opacity:1;stroke-dasharray:none" /></g></g><path
     d="M 90,90 0,90 0,0 90,0 90,90 z"
     id="path438"
     style="opacity:0.69999701;fill:#0b592f;fill-opacity:1;fill-rule:nonzero;stroke:none" /></svg>